('E:\\Projects\\space-war-python\\build\\main\\out00-PYZ.pyz',
 [('win32com',
   'C:\\Python35\\lib\\site-packages\\win32com\\__init__.py',
   'PYMODULE'),
  ('win32com.server.util',
   'C:\\Python35\\lib\\site-packages\\win32com\\server\\util.py',
   'PYMODULE'),
  ('win32com.server.dispatcher',
   'C:\\Python35\\lib\\site-packages\\win32com\\server\\dispatcher.py',
   'PYMODULE'),
  ('win32traceutil',
   'C:\\Python35\\lib\\site-packages\\win32\\lib\\win32traceutil.py',
   'PYMODULE'),
  ('win32com.util',
   'C:\\Python35\\lib\\site-packages\\win32com\\util.py',
   'PYMODULE'),
  ('win32con',
   'C:\\Python35\\lib\\site-packages\\win32\\lib\\win32con.py',
   'PYMODULE'),
  ('win32com.server.exception',
   'C:\\Python35\\lib\\site-packages\\win32com\\server\\exception.py',
   'PYMODULE'),
  ('winerror',
   'C:\\Python35\\lib\\site-packages\\win32\\lib\\winerror.py',
   'PYMODULE'),
  ('win32com.server.policy',
   'C:\\Python35\\lib\\site-packages\\win32com\\server\\policy.py',
   'PYMODULE'),
  ('win32com.client',
   'C:\\Python35\\lib\\site-packages\\win32com\\client\\__init__.py',
   'PYMODULE'),
  ('win32com.client.makepy',
   'C:\\Python35\\lib\\site-packages\\win32com\\client\\makepy.py',
   'PYMODULE'),
  ('pywin.dialogs.status',
   'C:\\Python35\\lib\\site-packages\\Pythonwin\\pywin\\dialogs\\status.py',
   'PYMODULE'),
  ('pywin.mfc.thread',
   'C:\\Python35\\lib\\site-packages\\Pythonwin\\pywin\\mfc\\thread.py',
   'PYMODULE'),
  ('pywin.mfc.object',
   'C:\\Python35\\lib\\site-packages\\Pythonwin\\pywin\\mfc\\object.py',
   'PYMODULE'),
  ('pywin.mfc.dialog',
   'C:\\Python35\\lib\\site-packages\\Pythonwin\\pywin\\mfc\\dialog.py',
   'PYMODULE'),
  ('pywin.mfc.window',
   'C:\\Python35\\lib\\site-packages\\Pythonwin\\pywin\\mfc\\window.py',
   'PYMODULE'),
  ('pywin.mfc',
   'C:\\Python35\\lib\\site-packages\\Pythonwin\\pywin\\mfc\\__init__.py',
   'PYMODULE'),
  ('pywin.dialogs',
   'C:\\Python35\\lib\\site-packages\\Pythonwin\\pywin\\dialogs\\__init__.py',
   'PYMODULE'),
  ('pywin',
   'C:\\Python35\\lib\\site-packages\\Pythonwin\\pywin\\__init__.py',
   'PYMODULE'),
  ('win32com.client.selecttlb',
   'C:\\Python35\\lib\\site-packages\\win32com\\client\\selecttlb.py',
   'PYMODULE'),
  ('pywin.dialogs.list',
   'C:\\Python35\\lib\\site-packages\\Pythonwin\\pywin\\dialogs\\list.py',
   'PYMODULE'),
  ('commctrl',
   'C:\\Python35\\lib\\site-packages\\win32\\lib\\commctrl.py',
   'PYMODULE'),
  ('win32com.client.genpy',
   'C:\\Python35\\lib\\site-packages\\win32com\\client\\genpy.py',
   'PYMODULE'),
  ('win32com.client.gencache',
   'C:\\Python35\\lib\\site-packages\\win32com\\client\\gencache.py',
   'PYMODULE'),
  ('win32com.client.CLSIDToClass',
   'C:\\Python35\\lib\\site-packages\\win32com\\client\\CLSIDToClass.py',
   'PYMODULE'),
  ('win32com.client.dynamic',
   'C:\\Python35\\lib\\site-packages\\win32com\\client\\dynamic.py',
   'PYMODULE'),
  ('win32com.client.build',
   'C:\\Python35\\lib\\site-packages\\win32com\\client\\build.py',
   'PYMODULE'),
  ('pywintypes',
   'C:\\Python35\\lib\\site-packages\\win32\\lib\\pywintypes.py',
   'PYMODULE'),
  ('win32com.server',
   'C:\\Python35\\lib\\site-packages\\win32com\\server\\__init__.py',
   'PYMODULE'),
  ('win32com.universal',
   'C:\\Python35\\lib\\site-packages\\win32com\\universal.py',
   'PYMODULE'),
  ('win32com.client.util',
   'C:\\Python35\\lib\\site-packages\\win32com\\client\\util.py',
   'PYMODULE'),
  ('pythoncom', 'C:\\Python35\\lib\\site-packages\\pythoncom.py', 'PYMODULE'),
  ('pkg_resources',
   'C:\\Python35\\lib\\site-packages\\pkg_resources\\__init__.py',
   'PYMODULE'),
  ('pkg_resources._vendor.packaging',
   'C:\\Python35\\lib\\site-packages\\pkg_resources\\_vendor\\packaging\\__init__.py',
   'PYMODULE'),
  ('pkg_resources._vendor.six',
   'C:\\Python35\\lib\\site-packages\\pkg_resources\\_vendor\\six.py',
   'PYMODULE'),
  ('pkg_resources._vendor.packaging.specifiers',
   'C:\\Python35\\lib\\site-packages\\pkg_resources\\_vendor\\packaging\\specifiers.py',
   'PYMODULE'),
  ('pkg_resources._vendor',
   'C:\\Python35\\lib\\site-packages\\pkg_resources\\_vendor\\__init__.py',
   'PYMODULE'),
  ('pkg_resources._vendor.packaging._structures',
   'C:\\Python35\\lib\\site-packages\\pkg_resources\\_vendor\\packaging\\_structures.py',
   'PYMODULE'),
  ('pkg_resources._vendor.packaging.__about__',
   'C:\\Python35\\lib\\site-packages\\pkg_resources\\_vendor\\packaging\\__about__.py',
   'PYMODULE'),
  ('pkg_resources._vendor.packaging.utils',
   'C:\\Python35\\lib\\site-packages\\pkg_resources\\_vendor\\packaging\\utils.py',
   'PYMODULE'),
  ('pkg_resources._vendor.packaging.version',
   'C:\\Python35\\lib\\site-packages\\pkg_resources\\_vendor\\packaging\\version.py',
   'PYMODULE'),
  ('pkg_resources._vendor.packaging.requirements',
   'C:\\Python35\\lib\\site-packages\\pkg_resources\\_vendor\\packaging\\requirements.py',
   'PYMODULE'),
  ('pkg_resources._vendor.packaging.markers',
   'C:\\Python35\\lib\\site-packages\\pkg_resources\\_vendor\\packaging\\markers.py',
   'PYMODULE'),
  ('pkg_resources._vendor.packaging._compat',
   'C:\\Python35\\lib\\site-packages\\pkg_resources\\_vendor\\packaging\\_compat.py',
   'PYMODULE'),
  ('pkg_resources._vendor.pyparsing',
   'C:\\Python35\\lib\\site-packages\\pkg_resources\\_vendor\\pyparsing.py',
   'PYMODULE'),
  ('uuid', 'C:\\Python35\\lib\\uuid.py', 'PYMODULE'),
  ('ctypes.util', 'C:\\Python35\\lib\\ctypes\\util.py', 'PYMODULE'),
  ('ctypes.macholib.dyld',
   'C:\\Python35\\lib\\ctypes\\macholib\\dyld.py',
   'PYMODULE'),
  ('ctypes.macholib',
   'C:\\Python35\\lib\\ctypes\\macholib\\__init__.py',
   'PYMODULE'),
  ('ctypes.macholib.dylib',
   'C:\\Python35\\lib\\ctypes\\macholib\\dylib.py',
   'PYMODULE'),
  ('ctypes.macholib.framework',
   'C:\\Python35\\lib\\ctypes\\macholib\\framework.py',
   'PYMODULE'),
  ('netbios',
   'C:\\Python35\\lib\\site-packages\\win32\\lib\\netbios.py',
   'PYMODULE'),
  ('ctypes', 'C:\\Python35\\lib\\ctypes\\__init__.py', 'PYMODULE'),
  ('ctypes._endian', 'C:\\Python35\\lib\\ctypes\\_endian.py', 'PYMODULE'),
  ('pkg_resources._vendor.appdirs',
   'C:\\Python35\\lib\\site-packages\\pkg_resources\\_vendor\\appdirs.py',
   'PYMODULE'),
  ('win32com.shell.shellcon',
   'C:\\Python35\\lib\\site-packages\\win32comext\\shell\\shellcon.py',
   'PYMODULE'),
  ('win32com.shell',
   'C:\\Python35\\lib\\site-packages\\win32comext\\shell\\__init__.py',
   'PYMODULE'),
  ('distutils.util', 'C:\\Python35\\lib\\distutils\\util.py', 'PYMODULE'),
  ('distutils.filelist',
   'C:\\Python35\\lib\\distutils\\filelist.py',
   'PYMODULE'),
  ('distutils.debug', 'C:\\Python35\\lib\\distutils\\debug.py', 'PYMODULE'),
  ('distutils.file_util',
   'C:\\Python35\\lib\\distutils\\file_util.py',
   'PYMODULE'),
  ('distutils.dir_util',
   'C:\\Python35\\lib\\distutils\\dir_util.py',
   'PYMODULE'),
  ('lib2to3.refactor', 'C:\\Python35\\lib\\lib2to3\\refactor.py', 'PYMODULE'),
  ('multiprocessing',
   'C:\\Python35\\lib\\multiprocessing\\__init__.py',
   'PYMODULE'),
  ('multiprocessing.spawn',
   'C:\\Python35\\lib\\multiprocessing\\spawn.py',
   'PYMODULE'),
  ('runpy', 'C:\\Python35\\lib\\runpy.py', 'PYMODULE'),
  ('multiprocessing.semaphore_tracker',
   'C:\\Python35\\lib\\multiprocessing\\semaphore_tracker.py',
   'PYMODULE'),
  ('multiprocessing.pool',
   'C:\\Python35\\lib\\multiprocessing\\pool.py',
   'PYMODULE'),
  ('multiprocessing.dummy',
   'C:\\Python35\\lib\\multiprocessing\\dummy\\__init__.py',
   'PYMODULE'),
  ('multiprocessing.dummy.connection',
   'C:\\Python35\\lib\\multiprocessing\\dummy\\connection.py',
   'PYMODULE'),
  ('queue', 'C:\\Python35\\lib\\queue.py', 'PYMODULE'),
  ('multiprocessing.connection',
   'C:\\Python35\\lib\\multiprocessing\\connection.py',
   'PYMODULE'),
  ('xmlrpc.client', 'C:\\Python35\\lib\\xmlrpc\\client.py', 'PYMODULE'),
  ('xmlrpc', 'C:\\Python35\\lib\\xmlrpc\\__init__.py', 'PYMODULE'),
  ('hmac', 'C:\\Python35\\lib\\hmac.py', 'PYMODULE'),
  ('multiprocessing.resource_sharer',
   'C:\\Python35\\lib\\multiprocessing\\resource_sharer.py',
   'PYMODULE'),
  ('multiprocessing.reduction',
   'C:\\Python35\\lib\\multiprocessing\\reduction.py',
   'PYMODULE'),
  ('multiprocessing.context',
   'C:\\Python35\\lib\\multiprocessing\\context.py',
   'PYMODULE'),
  ('multiprocessing.popen_spawn_win32',
   'C:\\Python35\\lib\\multiprocessing\\popen_spawn_win32.py',
   'PYMODULE'),
  ('multiprocessing.popen_forkserver',
   'C:\\Python35\\lib\\multiprocessing\\popen_forkserver.py',
   'PYMODULE'),
  ('multiprocessing.popen_spawn_posix',
   'C:\\Python35\\lib\\multiprocessing\\popen_spawn_posix.py',
   'PYMODULE'),
  ('multiprocessing.popen_fork',
   'C:\\Python35\\lib\\multiprocessing\\popen_fork.py',
   'PYMODULE'),
  ('multiprocessing.forkserver',
   'C:\\Python35\\lib\\multiprocessing\\forkserver.py',
   'PYMODULE'),
  ('multiprocessing.sharedctypes',
   'C:\\Python35\\lib\\multiprocessing\\sharedctypes.py',
   'PYMODULE'),
  ('multiprocessing.heap',
   'C:\\Python35\\lib\\multiprocessing\\heap.py',
   'PYMODULE'),
  ('bisect', 'C:\\Python35\\lib\\bisect.py', 'PYMODULE'),
  ('multiprocessing.queues',
   'C:\\Python35\\lib\\multiprocessing\\queues.py',
   'PYMODULE'),
  ('multiprocessing.synchronize',
   'C:\\Python35\\lib\\multiprocessing\\synchronize.py',
   'PYMODULE'),
  ('multiprocessing.managers',
   'C:\\Python35\\lib\\multiprocessing\\managers.py',
   'PYMODULE'),
  ('multiprocessing.util',
   'C:\\Python35\\lib\\multiprocessing\\util.py',
   'PYMODULE'),
  ('multiprocessing.process',
   'C:\\Python35\\lib\\multiprocessing\\process.py',
   'PYMODULE'),
  ('lib2to3.btm_matcher',
   'C:\\Python35\\lib\\lib2to3\\btm_matcher.py',
   'PYMODULE'),
  ('lib2to3.btm_utils', 'C:\\Python35\\lib\\lib2to3\\btm_utils.py', 'PYMODULE'),
  ('lib2to3.pgen2.grammar',
   'C:\\Python35\\lib\\lib2to3\\pgen2\\grammar.py',
   'PYMODULE'),
  ('lib2to3.pytree', 'C:\\Python35\\lib\\lib2to3\\pytree.py', 'PYMODULE'),
  ('lib2to3.pygram', 'C:\\Python35\\lib\\lib2to3\\pygram.py', 'PYMODULE'),
  ('lib2to3', 'C:\\Python35\\lib\\lib2to3\\__init__.py', 'PYMODULE'),
  ('lib2to3.patcomp', 'C:\\Python35\\lib\\lib2to3\\patcomp.py', 'PYMODULE'),
  ('lib2to3.pgen2.parse',
   'C:\\Python35\\lib\\lib2to3\\pgen2\\parse.py',
   'PYMODULE'),
  ('lib2to3.pgen2.literals',
   'C:\\Python35\\lib\\lib2to3\\pgen2\\literals.py',
   'PYMODULE'),
  ('lib2to3.fixer_util',
   'C:\\Python35\\lib\\lib2to3\\fixer_util.py',
   'PYMODULE'),
  ('lib2to3.pgen2.driver',
   'C:\\Python35\\lib\\lib2to3\\pgen2\\driver.py',
   'PYMODULE'),
  ('lib2to3.pgen2.pgen',
   'C:\\Python35\\lib\\lib2to3\\pgen2\\pgen.py',
   'PYMODULE'),
  ('lib2to3.pgen2.tokenize',
   'C:\\Python35\\lib\\lib2to3\\pgen2\\tokenize.py',
   'PYMODULE'),
  ('lib2to3.pgen2.token',
   'C:\\Python35\\lib\\lib2to3\\pgen2\\token.py',
   'PYMODULE'),
  ('lib2to3.pgen2',
   'C:\\Python35\\lib\\lib2to3\\pgen2\\__init__.py',
   'PYMODULE'),
  ('distutils.sysconfig',
   'C:\\Python35\\lib\\distutils\\sysconfig.py',
   'PYMODULE'),
  ('distutils.text_file',
   'C:\\Python35\\lib\\distutils\\text_file.py',
   'PYMODULE'),
  ('_osx_support', 'C:\\Python35\\lib\\_osx_support.py', 'PYMODULE'),
  ('distutils.log', 'C:\\Python35\\lib\\distutils\\log.py', 'PYMODULE'),
  ('distutils', 'C:\\Python35\\lib\\distutils\\__init__.py', 'PYMODULE'),
  ('distutils.spawn', 'C:\\Python35\\lib\\distutils\\spawn.py', 'PYMODULE'),
  ('distutils.dep_util',
   'C:\\Python35\\lib\\distutils\\dep_util.py',
   'PYMODULE'),
  ('distutils.errors', 'C:\\Python35\\lib\\distutils\\errors.py', 'PYMODULE'),
  ('sysconfig', 'C:\\Python35\\lib\\sysconfig.py', 'PYMODULE'),
  ('pkg_resources.extern',
   'C:\\Python35\\lib\\site-packages\\pkg_resources\\extern\\__init__.py',
   'PYMODULE'),
  ('ntpath', 'C:\\Python35\\lib\\ntpath.py', 'PYMODULE'),
  ('_strptime', 'C:\\Python35\\lib\\_strptime.py', 'PYMODULE'),
  ('datetime', 'C:\\Python35\\lib\\datetime.py', 'PYMODULE'),
  ('stringprep', 'C:\\Python35\\lib\\stringprep.py', 'PYMODULE'),
  ('_compat_pickle', 'C:\\Python35\\lib\\_compat_pickle.py', 'PYMODULE'),
  ('pickle', 'C:\\Python35\\lib\\pickle.py', 'PYMODULE'),
  ('__future__', 'C:\\Python35\\lib\\__future__.py', 'PYMODULE'),
  ('argparse', 'C:\\Python35\\lib\\argparse.py', 'PYMODULE'),
  ('difflib', 'C:\\Python35\\lib\\difflib.py', 'PYMODULE'),
  ('ast', 'C:\\Python35\\lib\\ast.py', 'PYMODULE'),
  ('imp', 'C:\\Python35\\lib\\imp.py', 'PYMODULE'),
  ('inspect', 'C:\\Python35\\lib\\inspect.py', 'PYMODULE'),
  ('os', 'C:\\Python35\\lib\\os.py', 'PYMODULE'),
  ('cmd', 'C:\\Python35\\lib\\cmd.py', 'PYMODULE'),
  ('bdb', 'C:\\Python35\\lib\\bdb.py', 'PYMODULE'),
  ('opcode', 'C:\\Python35\\lib\\opcode.py', 'PYMODULE'),
  ('dis', 'C:\\Python35\\lib\\dis.py', 'PYMODULE'),
  ('codeop', 'C:\\Python35\\lib\\codeop.py', 'PYMODULE'),
  ('code', 'C:\\Python35\\lib\\code.py', 'PYMODULE'),
  ('glob', 'C:\\Python35\\lib\\glob.py', 'PYMODULE'),
  ('shlex', 'C:\\Python35\\lib\\shlex.py', 'PYMODULE'),
  ('importlib._bootstrap',
   'C:\\Python35\\lib\\importlib\\_bootstrap.py',
   'PYMODULE'),
  ('importlib._bootstrap_external',
   'C:\\Python35\\lib\\importlib\\_bootstrap_external.py',
   'PYMODULE'),
  ('importlib.machinery',
   'C:\\Python35\\lib\\importlib\\machinery.py',
   'PYMODULE'),
  ('importlib.util', 'C:\\Python35\\lib\\importlib\\util.py', 'PYMODULE'),
  ('importlib.abc', 'C:\\Python35\\lib\\importlib\\abc.py', 'PYMODULE'),
  ('importlib', 'C:\\Python35\\lib\\importlib\\__init__.py', 'PYMODULE'),
  ('pkgutil', 'C:\\Python35\\lib\\pkgutil.py', 'PYMODULE'),
  ('xml', 'C:\\Python35\\lib\\xml\\__init__.py', 'PYMODULE'),
  ('xml.sax.expatreader',
   'C:\\Python35\\lib\\xml\\sax\\expatreader.py',
   'PYMODULE'),
  ('xml.sax.saxutils', 'C:\\Python35\\lib\\xml\\sax\\saxutils.py', 'PYMODULE'),
  ('urllib.request', 'C:\\Python35\\lib\\urllib\\request.py', 'PYMODULE'),
  ('getpass', 'C:\\Python35\\lib\\getpass.py', 'PYMODULE'),
  ('nturl2path', 'C:\\Python35\\lib\\nturl2path.py', 'PYMODULE'),
  ('ftplib', 'C:\\Python35\\lib\\ftplib.py', 'PYMODULE'),
  ('netrc', 'C:\\Python35\\lib\\netrc.py', 'PYMODULE'),
  ('http.cookiejar', 'C:\\Python35\\lib\\http\\cookiejar.py', 'PYMODULE'),
  ('urllib.response', 'C:\\Python35\\lib\\urllib\\response.py', 'PYMODULE'),
  ('urllib.error', 'C:\\Python35\\lib\\urllib\\error.py', 'PYMODULE'),
  ('xml.sax', 'C:\\Python35\\lib\\xml\\sax\\__init__.py', 'PYMODULE'),
  ('xml.sax.handler', 'C:\\Python35\\lib\\xml\\sax\\handler.py', 'PYMODULE'),
  ('xml.sax._exceptions',
   'C:\\Python35\\lib\\xml\\sax\\_exceptions.py',
   'PYMODULE'),
  ('xml.sax.xmlreader',
   'C:\\Python35\\lib\\xml\\sax\\xmlreader.py',
   'PYMODULE'),
  ('xml.parsers', 'C:\\Python35\\lib\\xml\\parsers\\__init__.py', 'PYMODULE'),
  ('xml.parsers.expat',
   'C:\\Python35\\lib\\xml\\parsers\\expat.py',
   'PYMODULE'),
  ('plistlib', 'C:\\Python35\\lib\\plistlib.py', 'PYMODULE'),
  ('platform', 'C:\\Python35\\lib\\platform.py', 'PYMODULE'),
  ('token', 'C:\\Python35\\lib\\token.py', 'PYMODULE'),
  ('tokenize', 'C:\\Python35\\lib\\tokenize.py', 'PYMODULE'),
  ('urllib.parse', 'C:\\Python35\\lib\\urllib\\parse.py', 'PYMODULE'),
  ('tempfile', 'C:\\Python35\\lib\\tempfile.py', 'PYMODULE'),
  ('subprocess', 'C:\\Python35\\lib\\subprocess.py', 'PYMODULE'),
  ('tty', 'C:\\Python35\\lib\\tty.py', 'PYMODULE'),
  ('pydoc_data', 'C:\\Python35\\lib\\pydoc_data\\__init__.py', 'PYMODULE'),
  ('pydoc_data.topics', 'C:\\Python35\\lib\\pydoc_data\\topics.py', 'PYMODULE'),
  ('textwrap', 'C:\\Python35\\lib\\textwrap.py', 'PYMODULE'),
  ('html.entities', 'C:\\Python35\\lib\\html\\entities.py', 'PYMODULE'),
  ('html', 'C:\\Python35\\lib\\html\\__init__.py', 'PYMODULE'),
  ('ipaddress', 'C:\\Python35\\lib\\ipaddress.py', 'PYMODULE'),
  ('ssl', 'C:\\Python35\\lib\\ssl.py', 'PYMODULE'),
  ('http.client', 'C:\\Python35\\lib\\http\\client.py', 'PYMODULE'),
  ('mimetypes', 'C:\\Python35\\lib\\mimetypes.py', 'PYMODULE'),
  ('socketserver', 'C:\\Python35\\lib\\socketserver.py', 'PYMODULE'),
  ('http', 'C:\\Python35\\lib\\http\\__init__.py', 'PYMODULE'),
  ('http.server', 'C:\\Python35\\lib\\http\\server.py', 'PYMODULE'),
  ('uu', 'C:\\Python35\\lib\\uu.py', 'PYMODULE'),
  ('quopri', 'C:\\Python35\\lib\\quopri.py', 'PYMODULE'),
  ('email.feedparser', 'C:\\Python35\\lib\\email\\feedparser.py', 'PYMODULE'),
  ('email.parser', 'C:\\Python35\\lib\\email\\parser.py', 'PYMODULE'),
  ('email', 'C:\\Python35\\lib\\email\\__init__.py', 'PYMODULE'),
  ('optparse', 'C:\\Python35\\lib\\optparse.py', 'PYMODULE'),
  ('calendar', 'C:\\Python35\\lib\\calendar.py', 'PYMODULE'),
  ('email._parseaddr', 'C:\\Python35\\lib\\email\\_parseaddr.py', 'PYMODULE'),
  ('email.utils', 'C:\\Python35\\lib\\email\\utils.py', 'PYMODULE'),
  ('email.errors', 'C:\\Python35\\lib\\email\\errors.py', 'PYMODULE'),
  ('email.header', 'C:\\Python35\\lib\\email\\header.py', 'PYMODULE'),
  ('email._policybase', 'C:\\Python35\\lib\\email\\_policybase.py', 'PYMODULE'),
  ('email.base64mime', 'C:\\Python35\\lib\\email\\base64mime.py', 'PYMODULE'),
  ('email.encoders', 'C:\\Python35\\lib\\email\\encoders.py', 'PYMODULE'),
  ('email.charset', 'C:\\Python35\\lib\\email\\charset.py', 'PYMODULE'),
  ('base64', 'C:\\Python35\\lib\\base64.py', 'PYMODULE'),
  ('email._encoded_words',
   'C:\\Python35\\lib\\email\\_encoded_words.py',
   'PYMODULE'),
  ('hashlib', 'C:\\Python35\\lib\\hashlib.py', 'PYMODULE'),
  ('random', 'C:\\Python35\\lib\\random.py', 'PYMODULE'),
  ('email.generator', 'C:\\Python35\\lib\\email\\generator.py', 'PYMODULE'),
  ('email.iterators', 'C:\\Python35\\lib\\email\\iterators.py', 'PYMODULE'),
  ('urllib', 'C:\\Python35\\lib\\urllib\\__init__.py', 'PYMODULE'),
  ('email._header_value_parser',
   'C:\\Python35\\lib\\email\\_header_value_parser.py',
   'PYMODULE'),
  ('email.headerregistry',
   'C:\\Python35\\lib\\email\\headerregistry.py',
   'PYMODULE'),
  ('email.quoprimime', 'C:\\Python35\\lib\\email\\quoprimime.py', 'PYMODULE'),
  ('email.contentmanager',
   'C:\\Python35\\lib\\email\\contentmanager.py',
   'PYMODULE'),
  ('email.policy', 'C:\\Python35\\lib\\email\\policy.py', 'PYMODULE'),
  ('email.message', 'C:\\Python35\\lib\\email\\message.py', 'PYMODULE'),
  ('bz2', 'C:\\Python35\\lib\\bz2.py', 'PYMODULE'),
  ('lzma', 'C:\\Python35\\lib\\lzma.py', 'PYMODULE'),
  ('_compression', 'C:\\Python35\\lib\\_compression.py', 'PYMODULE'),
  ('gzip', 'C:\\Python35\\lib\\gzip.py', 'PYMODULE'),
  ('tarfile', 'C:\\Python35\\lib\\tarfile.py', 'PYMODULE'),
  ('_dummy_thread', 'C:\\Python35\\lib\\_dummy_thread.py', 'PYMODULE'),
  ('dummy_threading', 'C:\\Python35\\lib\\dummy_threading.py', 'PYMODULE'),
  ('py_compile', 'C:\\Python35\\lib\\py_compile.py', 'PYMODULE'),
  ('zipfile', 'C:\\Python35\\lib\\zipfile.py', 'PYMODULE'),
  ('shutil', 'C:\\Python35\\lib\\shutil.py', 'PYMODULE'),
  ('selectors', 'C:\\Python35\\lib\\selectors.py', 'PYMODULE'),
  ('socket', 'C:\\Python35\\lib\\socket.py', 'PYMODULE'),
  ('webbrowser', 'C:\\Python35\\lib\\webbrowser.py', 'PYMODULE'),
  ('pydoc', 'C:\\Python35\\lib\\pydoc.py', 'PYMODULE'),
  ('copy', 'C:\\Python35\\lib\\copy.py', 'PYMODULE'),
  ('struct', 'C:\\Python35\\lib\\struct.py', 'PYMODULE'),
  ('gettext', 'C:\\Python35\\lib\\gettext.py', 'PYMODULE'),
  ('getopt', 'C:\\Python35\\lib\\getopt.py', 'PYMODULE'),
  ('pdb', 'C:\\Python35\\lib\\pdb.py', 'PYMODULE'),
  ('unittest.util', 'C:\\Python35\\lib\\unittest\\util.py', 'PYMODULE'),
  ('unittest.result', 'C:\\Python35\\lib\\unittest\\result.py', 'PYMODULE'),
  ('string', 'C:\\Python35\\lib\\string.py', 'PYMODULE'),
  ('_threading_local', 'C:\\Python35\\lib\\_threading_local.py', 'PYMODULE'),
  ('threading', 'C:\\Python35\\lib\\threading.py', 'PYMODULE'),
  ('logging', 'C:\\Python35\\lib\\logging\\__init__.py', 'PYMODULE'),
  ('pprint', 'C:\\Python35\\lib\\pprint.py', 'PYMODULE'),
  ('contextlib', 'C:\\Python35\\lib\\contextlib.py', 'PYMODULE'),
  ('unittest.case', 'C:\\Python35\\lib\\unittest\\case.py', 'PYMODULE'),
  ('unittest.suite', 'C:\\Python35\\lib\\unittest\\suite.py', 'PYMODULE'),
  ('stat', 'C:\\Python35\\lib\\stat.py', 'PYMODULE'),
  ('genericpath', 'C:\\Python35\\lib\\genericpath.py', 'PYMODULE'),
  ('posixpath', 'C:\\Python35\\lib\\posixpath.py', 'PYMODULE'),
  ('fnmatch', 'C:\\Python35\\lib\\fnmatch.py', 'PYMODULE'),
  ('unittest.loader', 'C:\\Python35\\lib\\unittest\\loader.py', 'PYMODULE'),
  ('warnings', 'C:\\Python35\\lib\\warnings.py', 'PYMODULE'),
  ('unittest.runner', 'C:\\Python35\\lib\\unittest\\runner.py', 'PYMODULE'),
  ('unittest.main', 'C:\\Python35\\lib\\unittest\\main.py', 'PYMODULE'),
  ('enum', 'C:\\Python35\\lib\\enum.py', 'PYMODULE'),
  ('signal', 'C:\\Python35\\lib\\signal.py', 'PYMODULE'),
  ('unittest.signals', 'C:\\Python35\\lib\\unittest\\signals.py', 'PYMODULE'),
  ('unittest', 'C:\\Python35\\lib\\unittest\\__init__.py', 'PYMODULE'),
  ('doctest', 'C:\\Python35\\lib\\doctest.py', 'PYMODULE'),
  ('play_state', 'E:\\Projects\\space-war-python\\play_state.py', 'PYMODULE'),
  ('collision_detection',
   'E:\\Projects\\space-war-python\\collision_detection.py',
   'PYMODULE'),
  ('keyboard_handler',
   'E:\\Projects\\space-war-python\\keyboard_handler.py',
   'PYMODULE'),
  ('enemy', 'E:\\Projects\\space-war-python\\enemy.py', 'PYMODULE'),
  ('image_library',
   'E:\\Projects\\space-war-python\\image_library.py',
   'PYMODULE'),
  ('bullet', 'E:\\Projects\\space-war-python\\bullet.py', 'PYMODULE'),
  ('player', 'E:\\Projects\\space-war-python\\player.py', 'PYMODULE'),
  ('pygame',
   'C:\\Python35\\lib\\site-packages\\pygame\\__init__.py',
   'PYMODULE'),
  ('pygame.colordict',
   'C:\\Python35\\lib\\site-packages\\pygame\\colordict.py',
   'PYMODULE'),
  ('pygame.macosx',
   'C:\\Python35\\lib\\site-packages\\pygame\\macosx.py',
   'PYMODULE'),
  ('pygame.pkgdata',
   'C:\\Python35\\lib\\site-packages\\pygame\\pkgdata.py',
   'PYMODULE'),
  ('pygame.sndarray',
   'C:\\Python35\\lib\\site-packages\\pygame\\sndarray.py',
   'PYMODULE'),
  ('pygame._numpysndarray',
   'C:\\Python35\\lib\\site-packages\\pygame\\_numpysndarray.py',
   'PYMODULE'),
  ('pygame.surfarray',
   'C:\\Python35\\lib\\site-packages\\pygame\\surfarray.py',
   'PYMODULE'),
  ('pygame._numpysurfarray',
   'C:\\Python35\\lib\\site-packages\\pygame\\_numpysurfarray.py',
   'PYMODULE'),
  ('pygame.sysfont',
   'C:\\Python35\\lib\\site-packages\\pygame\\sysfont.py',
   'PYMODULE'),
  ('pygame.ftfont',
   'C:\\Python35\\lib\\site-packages\\pygame\\ftfont.py',
   'PYMODULE'),
  ('pygame.threads',
   'C:\\Python35\\lib\\site-packages\\pygame\\threads\\__init__.py',
   'PYMODULE'),
  ('pygame.sprite',
   'C:\\Python35\\lib\\site-packages\\pygame\\sprite.py',
   'PYMODULE'),
  ('pygame.cursors',
   'C:\\Python35\\lib\\site-packages\\pygame\\cursors.py',
   'PYMODULE'),
  ('pygame.compat',
   'C:\\Python35\\lib\\site-packages\\pygame\\compat.py',
   'PYMODULE'),
  ('pygame.version',
   'C:\\Python35\\lib\\site-packages\\pygame\\version.py',
   'PYMODULE')])
