('E:\\Projects\\space-war-python\\dist\\main.exe',
 False,
 False,
 False,
 'player_ship.ico',
 None,
 False,
 False,
 '<?xml version="1.0" encoding="UTF-8" standalone="yes"?><assembly manifestVersion="1.0" xmlns="urn:schemas-microsoft-com:asm.v1"><assemblyIdentity name="main" processorArchitecture="amd64" type="win32" version="1.0.0.0"/><dependency><dependentAssembly><assemblyIdentity language="*" name="Microsoft.Windows.Common-Controls" processorArchitecture="*" publicKeyToken="6595b64144ccf1df" type="win32" version="6.0.0.0"/><compatibility xmlns="urn:schemas-microsoft-com:compatibility.v1"/></dependentAssembly></dependency><compatibility xmlns="urn:schemas-microsoft-com:compatibility.v1"><application><supportedOS Id="{1f676c76-80e1-4239-95bb-83d0f6d0da78}"/><supportedOS Id="{4a2f28e3-53b9-4441-ba9c-d69d4a4a6e38}"/><supportedOS Id="{35138b9a-5d96-4fbd-8e2d-a2440225f93a}"/><supportedOS Id="{e2011457-1546-43c5-a5fe-008deee3d3f0}"/><supportedOS Id="{8e0f7a12-bfb3-4fe8-b9a5-48fd50a15a9a}"/></application></compatibility></assembly>',
 True,
 'main.pkg',
 [('out00-PYZ.pyz',
   'E:\\Projects\\space-war-python\\build\\main\\out00-PYZ.pyz',
   'PYZ'),
  ('struct', 'C:\\Python35\\lib\\struct.pyo', 'PYMODULE'),
  ('pyimod01_os_path',
   'C:\\Python35\\lib\\site-packages\\PyInstaller\\loader\\pyimod01_os_path.pyc',
   'PYMODULE'),
  ('pyimod02_archive',
   'C:\\Python35\\lib\\site-packages\\PyInstaller\\loader\\pyimod02_archive.pyc',
   'PYMODULE'),
  ('pyimod03_importers',
   'C:\\Python35\\lib\\site-packages\\PyInstaller\\loader\\pyimod03_importers.pyc',
   'PYMODULE'),
  ('pyiboot01_bootstrap',
   'C:\\Python35\\lib\\site-packages\\PyInstaller\\loader\\pyiboot01_bootstrap.py',
   'PYSOURCE'),
  ('pyi_rth_pkgres',
   'C:\\Python35\\lib\\site-packages\\PyInstaller\\loader\\rthooks\\pyi_rth_pkgres.py',
   'PYSOURCE'),
  ('pyi_rth_win32comgenpy',
   'C:\\Python35\\lib\\site-packages\\PyInstaller\\loader\\rthooks\\pyi_rth_win32comgenpy.py',
   'PYSOURCE'),
  ('main', 'E:\\Projects\\space-war-python\\main.py', 'PYSOURCE'),
  ('VCRUNTIME140.dll', 'C:\\Python35\\VCRUNTIME140.dll', 'BINARY'),
  ('python35.dll', 'C:\\Python35\\python35.dll', 'BINARY'),
  ('api-ms-win-crt-heap-l1-1-0.dll',
   'C:\\Windows\\system32\\api-ms-win-crt-heap-l1-1-0.dll',
   'BINARY'),
  ('api-ms-win-crt-runtime-l1-1-0.dll',
   'C:\\Windows\\system32\\api-ms-win-crt-runtime-l1-1-0.dll',
   'BINARY'),
  ('api-ms-win-crt-math-l1-1-0.dll',
   'C:\\Windows\\system32\\api-ms-win-crt-math-l1-1-0.dll',
   'BINARY'),
  ('api-ms-win-crt-stdio-l1-1-0.dll',
   'C:\\Windows\\system32\\api-ms-win-crt-stdio-l1-1-0.dll',
   'BINARY'),
  ('api-ms-win-crt-locale-l1-1-0.dll',
   'C:\\Windows\\system32\\api-ms-win-crt-locale-l1-1-0.dll',
   'BINARY'),
  ('api-ms-win-crt-convert-l1-1-0.dll',
   'C:\\Windows\\system32\\api-ms-win-crt-convert-l1-1-0.dll',
   'BINARY'),
  ('api-ms-win-crt-string-l1-1-0.dll',
   'C:\\Windows\\system32\\api-ms-win-crt-string-l1-1-0.dll',
   'BINARY'),
  ('api-ms-win-crt-conio-l1-1-0.dll',
   'C:\\Windows\\system32\\api-ms-win-crt-conio-l1-1-0.dll',
   'BINARY'),
  ('api-ms-win-crt-environment-l1-1-0.dll',
   'C:\\Windows\\system32\\api-ms-win-crt-environment-l1-1-0.dll',
   'BINARY'),
  ('api-ms-win-crt-time-l1-1-0.dll',
   'C:\\Windows\\system32\\api-ms-win-crt-time-l1-1-0.dll',
   'BINARY'),
  ('api-ms-win-crt-process-l1-1-0.dll',
   'C:\\Windows\\system32\\api-ms-win-crt-process-l1-1-0.dll',
   'BINARY'),
  ('api-ms-win-crt-filesystem-l1-1-0.dll',
   'C:\\Windows\\system32\\api-ms-win-crt-filesystem-l1-1-0.dll',
   'BINARY'),
  ('ucrtbase.dll', 'C:\\Windows\\system32\\ucrtbase.dll', 'BINARY'),
  ('api-ms-win-core-console-l1-1-0.dll',
   'C:\\Windows\\system32\\api-ms-win-core-console-l1-1-0.dll',
   'BINARY'),
  ('api-ms-win-core-string-l1-1-0.dll',
   'C:\\Windows\\system32\\api-ms-win-core-string-l1-1-0.dll',
   'BINARY'),
  ('api-ms-win-core-synch-l1-1-0.dll',
   'C:\\Windows\\system32\\api-ms-win-core-synch-l1-1-0.dll',
   'BINARY'),
  ('api-ms-win-core-file-l1-1-0.dll',
   'C:\\Windows\\system32\\api-ms-win-core-file-l1-1-0.dll',
   'BINARY'),
  ('api-ms-win-core-timezone-l1-1-0.dll',
   'C:\\Windows\\system32\\api-ms-win-core-timezone-l1-1-0.dll',
   'BINARY'),
  ('api-ms-win-core-synch-l1-2-0.dll',
   'C:\\Windows\\system32\\api-ms-win-core-synch-l1-2-0.dll',
   'BINARY'),
  ('api-ms-win-core-heap-l1-1-0.dll',
   'C:\\Windows\\system32\\api-ms-win-core-heap-l1-1-0.dll',
   'BINARY'),
  ('api-ms-win-core-memory-l1-1-0.dll',
   'C:\\Windows\\system32\\api-ms-win-core-memory-l1-1-0.dll',
   'BINARY'),
  ('api-ms-win-core-namedpipe-l1-1-0.dll',
   'C:\\Windows\\system32\\api-ms-win-core-namedpipe-l1-1-0.dll',
   'BINARY'),
  ('api-ms-win-core-interlocked-l1-1-0.dll',
   'C:\\Windows\\system32\\api-ms-win-core-interlocked-l1-1-0.dll',
   'BINARY'),
  ('api-ms-win-core-sysinfo-l1-1-0.dll',
   'C:\\Windows\\system32\\api-ms-win-core-sysinfo-l1-1-0.dll',
   'BINARY'),
  ('api-ms-win-core-debug-l1-1-0.dll',
   'C:\\Windows\\system32\\api-ms-win-core-debug-l1-1-0.dll',
   'BINARY'),
  ('api-ms-win-core-libraryloader-l1-1-0.dll',
   'C:\\Windows\\system32\\api-ms-win-core-libraryloader-l1-1-0.dll',
   'BINARY'),
  ('api-ms-win-core-datetime-l1-1-0.dll',
   'C:\\Windows\\system32\\api-ms-win-core-datetime-l1-1-0.dll',
   'BINARY'),
  ('api-ms-win-core-file-l1-2-0.dll',
   'C:\\Windows\\system32\\api-ms-win-core-file-l1-2-0.dll',
   'BINARY'),
  ('api-ms-win-core-localization-l1-2-0.dll',
   'C:\\Windows\\system32\\api-ms-win-core-localization-l1-2-0.dll',
   'BINARY'),
  ('api-ms-win-core-processthreads-l1-1-0.dll',
   'C:\\Windows\\system32\\api-ms-win-core-processthreads-l1-1-0.dll',
   'BINARY'),
  ('api-ms-win-core-handle-l1-1-0.dll',
   'C:\\Windows\\system32\\api-ms-win-core-handle-l1-1-0.dll',
   'BINARY'),
  ('api-ms-win-core-rtlsupport-l1-1-0.dll',
   'C:\\Windows\\system32\\api-ms-win-core-rtlsupport-l1-1-0.dll',
   'BINARY'),
  ('api-ms-win-core-file-l2-1-0.dll',
   'C:\\Windows\\system32\\api-ms-win-core-file-l2-1-0.dll',
   'BINARY'),
  ('api-ms-win-core-processthreads-l1-1-1.dll',
   'C:\\Windows\\system32\\api-ms-win-core-processthreads-l1-1-1.dll',
   'BINARY'),
  ('api-ms-win-core-errorhandling-l1-1-0.dll',
   'C:\\Windows\\system32\\api-ms-win-core-errorhandling-l1-1-0.dll',
   'BINARY'),
  ('api-ms-win-core-util-l1-1-0.dll',
   'C:\\Windows\\system32\\api-ms-win-core-util-l1-1-0.dll',
   'BINARY'),
  ('api-ms-win-core-processenvironment-l1-1-0.dll',
   'C:\\Windows\\system32\\api-ms-win-core-processenvironment-l1-1-0.dll',
   'BINARY'),
  ('api-ms-win-core-profile-l1-1-0.dll',
   'C:\\Windows\\system32\\api-ms-win-core-profile-l1-1-0.dll',
   'BINARY'),
  ('pythoncom35.dll',
   'C:\\Python35\\lib\\site-packages\\pypiwin32_system32\\pythoncom35.dll',
   'BINARY'),
  ('pywintypes35.dll',
   'C:\\Python35\\lib\\site-packages\\pypiwin32_system32\\pywintypes35.dll',
   'BINARY'),
  ('win32trace',
   'C:\\Python35\\lib\\site-packages\\win32\\win32trace.pyd',
   'EXTENSION'),
  ('win32ui',
   'C:\\Python35\\lib\\site-packages\\Pythonwin\\win32ui.pyd',
   'EXTENSION'),
  ('_win32sysloader',
   'C:\\Python35\\lib\\site-packages\\win32\\_win32sysloader.pyd',
   'EXTENSION'),
  ('win32api',
   'C:\\Python35\\lib\\site-packages\\win32\\win32api.pyd',
   'EXTENSION'),
  ('win32wnet',
   'C:\\Python35\\lib\\site-packages\\win32\\win32wnet.pyd',
   'EXTENSION'),
  ('_ctypes', 'C:\\Python35\\DLLs\\_ctypes.pyd', 'EXTENSION'),
  ('win32com.shell.shell',
   'C:\\Python35\\lib\\site-packages\\win32comext\\shell\\shell.pyd',
   'EXTENSION'),
  ('_multiprocessing', 'C:\\Python35\\DLLs\\_multiprocessing.pyd', 'EXTENSION'),
  ('_ssl', 'C:\\Python35\\DLLs\\_ssl.pyd', 'EXTENSION'),
  ('unicodedata', 'C:\\Python35\\DLLs\\unicodedata.pyd', 'EXTENSION'),
  ('pyexpat', 'C:\\Python35\\DLLs\\pyexpat.pyd', 'EXTENSION'),
  ('_hashlib', 'C:\\Python35\\DLLs\\_hashlib.pyd', 'EXTENSION'),
  ('select', 'C:\\Python35\\DLLs\\select.pyd', 'EXTENSION'),
  ('_bz2', 'C:\\Python35\\DLLs\\_bz2.pyd', 'EXTENSION'),
  ('_lzma', 'C:\\Python35\\DLLs\\_lzma.pyd', 'EXTENSION'),
  ('_socket', 'C:\\Python35\\DLLs\\_socket.pyd', 'EXTENSION'),
  ('pygame.imageext',
   'C:\\Python35\\lib\\site-packages\\pygame\\imageext.cp35-win_amd64.pyd',
   'EXTENSION'),
  ('pygame.fastevent',
   'C:\\Python35\\lib\\site-packages\\pygame\\fastevent.cp35-win_amd64.pyd',
   'EXTENSION'),
  ('pygame.scrap',
   'C:\\Python35\\lib\\site-packages\\pygame\\scrap.cp35-win_amd64.pyd',
   'EXTENSION'),
  ('pygame.mixer',
   'C:\\Python35\\lib\\site-packages\\pygame\\mixer.cp35-win_amd64.pyd',
   'EXTENSION'),
  ('pygame.mixer_music',
   'C:\\Python35\\lib\\site-packages\\pygame\\mixer_music.cp35-win_amd64.pyd',
   'EXTENSION'),
  ('pygame.font',
   'C:\\Python35\\lib\\site-packages\\pygame\\font.cp35-win_amd64.pyd',
   'EXTENSION'),
  ('pygame._freetype',
   'C:\\Python35\\lib\\site-packages\\pygame\\_freetype.cp35-win_amd64.pyd',
   'EXTENSION'),
  ('pygame.transform',
   'C:\\Python35\\lib\\site-packages\\pygame\\transform.cp35-win_amd64.pyd',
   'EXTENSION'),
  ('pygame.time',
   'C:\\Python35\\lib\\site-packages\\pygame\\time.cp35-win_amd64.pyd',
   'EXTENSION'),
  ('pygame.overlay',
   'C:\\Python35\\lib\\site-packages\\pygame\\overlay.cp35-win_amd64.pyd',
   'EXTENSION'),
  ('pygame.pixelarray',
   'C:\\Python35\\lib\\site-packages\\pygame\\pixelarray.cp35-win_amd64.pyd',
   'EXTENSION'),
  ('pygame.mask',
   'C:\\Python35\\lib\\site-packages\\pygame\\mask.cp35-win_amd64.pyd',
   'EXTENSION'),
  ('pygame.surface',
   'C:\\Python35\\lib\\site-packages\\pygame\\surface.cp35-win_amd64.pyd',
   'EXTENSION'),
  ('pygame.pixelcopy',
   'C:\\Python35\\lib\\site-packages\\pygame\\pixelcopy.cp35-win_amd64.pyd',
   'EXTENSION'),
  ('pygame.mouse',
   'C:\\Python35\\lib\\site-packages\\pygame\\mouse.cp35-win_amd64.pyd',
   'EXTENSION'),
  ('pygame.key',
   'C:\\Python35\\lib\\site-packages\\pygame\\key.cp35-win_amd64.pyd',
   'EXTENSION'),
  ('pygame.joystick',
   'C:\\Python35\\lib\\site-packages\\pygame\\joystick.cp35-win_amd64.pyd',
   'EXTENSION'),
  ('pygame.image',
   'C:\\Python35\\lib\\site-packages\\pygame\\image.cp35-win_amd64.pyd',
   'EXTENSION'),
  ('pygame.event',
   'C:\\Python35\\lib\\site-packages\\pygame\\event.cp35-win_amd64.pyd',
   'EXTENSION'),
  ('pygame.draw',
   'C:\\Python35\\lib\\site-packages\\pygame\\draw.cp35-win_amd64.pyd',
   'EXTENSION'),
  ('pygame.display',
   'C:\\Python35\\lib\\site-packages\\pygame\\display.cp35-win_amd64.pyd',
   'EXTENSION'),
  ('pygame.cdrom',
   'C:\\Python35\\lib\\site-packages\\pygame\\cdrom.cp35-win_amd64.pyd',
   'EXTENSION'),
  ('pygame.math',
   'C:\\Python35\\lib\\site-packages\\pygame\\math.cp35-win_amd64.pyd',
   'EXTENSION'),
  ('pygame.bufferproxy',
   'C:\\Python35\\lib\\site-packages\\pygame\\bufferproxy.cp35-win_amd64.pyd',
   'EXTENSION'),
  ('pygame.color',
   'C:\\Python35\\lib\\site-packages\\pygame\\color.cp35-win_amd64.pyd',
   'EXTENSION'),
  ('pygame.surflock',
   'C:\\Python35\\lib\\site-packages\\pygame\\surflock.cp35-win_amd64.pyd',
   'EXTENSION'),
  ('pygame.rwobject',
   'C:\\Python35\\lib\\site-packages\\pygame\\rwobject.cp35-win_amd64.pyd',
   'EXTENSION'),
  ('pygame.rect',
   'C:\\Python35\\lib\\site-packages\\pygame\\rect.cp35-win_amd64.pyd',
   'EXTENSION'),
  ('pygame.constants',
   'C:\\Python35\\lib\\site-packages\\pygame\\constants.cp35-win_amd64.pyd',
   'EXTENSION'),
  ('pygame.base',
   'C:\\Python35\\lib\\site-packages\\pygame\\base.cp35-win_amd64.pyd',
   'EXTENSION'),
  ('MSVCR100.dll', 'C:\\Windows\\system32\\msvcr100.dll', 'BINARY'),
  ('mfc100u.dll',
   'C:\\Python35\\lib\\site-packages\\Pythonwin\\mfc100u.dll',
   'BINARY'),
  ('api-ms-win-crt-utility-l1-1-0.dll',
   'C:\\Windows\\system32\\api-ms-win-crt-utility-l1-1-0.dll',
   'BINARY'),
  ('SDL_image.dll',
   'C:\\Python35\\lib\\site-packages\\pygame\\SDL_image.dll',
   'BINARY'),
  ('libjpeg-8.dll',
   'C:\\Python35\\lib\\site-packages\\pygame\\libjpeg-8.dll',
   'BINARY'),
  ('SDL.dll', 'C:\\Python35\\lib\\site-packages\\pygame\\SDL.dll', 'BINARY'),
  ('libpng16-16.dll',
   'C:\\Python35\\lib\\site-packages\\pygame\\libpng16-16.dll',
   'BINARY'),
  ('SDL_mixer.dll',
   'C:\\Python35\\lib\\site-packages\\pygame\\SDL_mixer.dll',
   'BINARY'),
  ('SDL_ttf.dll',
   'C:\\Python35\\lib\\site-packages\\pygame\\SDL_ttf.dll',
   'BINARY'),
  ('libfreetype-6.dll',
   'C:\\Python35\\lib\\site-packages\\pygame\\libfreetype-6.dll',
   'BINARY'),
  ('libtiff-5.dll',
   'C:\\Python35\\lib\\site-packages\\pygame\\libtiff-5.dll',
   'BINARY'),
  ('libwebp-5.dll',
   'C:\\Python35\\lib\\site-packages\\pygame\\libwebp-5.dll',
   'BINARY'),
  ('zlib1.dll',
   'C:\\Python35\\lib\\site-packages\\pygame\\zlib1.dll',
   'BINARY'),
  ('libmpg123-0.dll',
   'C:\\Python35\\lib\\site-packages\\pygame\\libmpg123-0.dll',
   'BINARY'),
  ('libvorbisfile-3.dll',
   'C:\\Python35\\lib\\site-packages\\pygame\\libvorbisfile-3.dll',
   'BINARY'),
  ('libvorbis-0.dll',
   'C:\\Python35\\lib\\site-packages\\pygame\\libvorbis-0.dll',
   'BINARY'),
  ('libogg-0.dll',
   'C:\\Python35\\lib\\site-packages\\pygame\\libogg-0.dll',
   'BINARY'),
  ('assets\\img\\enemy2.png', 'assets\\img\\enemy2.png', 'DATA'),
  ('assets\\img\\player_ship.png', 'assets\\img\\player_ship.png', 'DATA'),
  ('assets\\img\\bullet.png', 'assets\\img\\bullet.png', 'DATA'),
  ('assets\\img\\enemy.png', 'assets\\img\\enemy.png', 'DATA'),
  ('assets\\img\\enemy_hurt.png', 'assets\\img\\enemy_hurt.png', 'DATA'),
  ('base_library.zip',
   'E:\\Projects\\space-war-python\\build\\main\\base_library.zip',
   'DATA'),
  ('lib2to3\\Grammar3.5.3.final.0.pickle',
   'C:\\Python35\\lib\\lib2to3\\Grammar3.5.3.final.0.pickle',
   'DATA'),
  ('Include\\pyconfig.h', 'C:\\Python35\\Include\\pyconfig.h', 'DATA'),
  ('lib2to3\\PatternGrammar3.5.3.final.0.pickle',
   'C:\\Python35\\lib\\lib2to3\\PatternGrammar3.5.3.final.0.pickle',
   'DATA'),
  ('lib2to3\\PatternGrammar.txt',
   'C:\\Python35\\lib\\lib2to3\\PatternGrammar.txt',
   'DATA'),
  ('lib2to3\\Grammar.txt', 'C:\\Python35\\lib\\lib2to3\\Grammar.txt', 'DATA'),
  ('lib2to3\\tests\\data\\README',
   'C:\\Python35\\lib\\lib2to3\\tests\\data\\README',
   'DATA'),
  ('main.exe.manifest',
   'E:\\Projects\\space-war-python\\build\\main\\main.exe.manifest',
   'BINARY'),
  ('pyi-windows-manifest-filename main.exe.manifest', '', 'OPTION')],
 [],
 False,
 False,
 1499084436,
 [('runw.exe',
   'C:\\Python35\\lib\\site-packages\\PyInstaller\\bootloader\\Windows-64bit\\runw.exe',
   'EXECUTABLE')])
